Project 1: Exploratory Data Analysis
…
The value 'low ºF' describes the lowest predicted temperature for the day. Low ºF: mean: 62.4, sd: 17.7, min: 35.1, max: 80.1, quantile: 35.1, 41.5, 75.9, 79.0, 80.1

The value 'Year' describes the year in which the film I watched came out. Year: mean: 2009.8, sd: 13.8, min: 1954, max: 2020, quantile: 1954, 2016, 2017, 2019, 2020

The value 'Precip. (In)' describes the precipitation in inches for each day. Year: mean: 0.027, sd: 0.092, min: 0, max: 0.7, quantile: 0.0, 0.0, 0.0, 0.0, 0.7

The value 'Rating' describes the rating out of 5 stars that I assigned each film. Year: mean: 3.6, sd: 1.06, min: 0.5, max: 5, quantile: 0.5, 3.0, 4.0, 4.5, 5

# Summary statistics for `High ºF` when grouped by Tags
Project1 %>% group_by(Tags) %>% summarize(mean(`High ºF`, na.rm = T), 
    sd(`High ºF`, na.rm = T), min(`High ºF`, na.rm = T), max(`High ºF`, 
        na.rm = T), quantile(`High ºF`, na.rm = T))

## # A tibble: 195 x 6
## # Groups:   Tags [39]
##    Tags  `mean(\`High ºF… `sd(\`High ºF\`… `min(\`High ºF\… `max(\`High ºF\…
##    <chr>            <dbl>            <dbl>            <dbl>            <dbl>
##  1 936               81.2             19.7               52             105.
##  2 936               81.2             19.7               52             105.
##  3 936               81.2             19.7               52             105.
##  4 936               81.2             19.7               52             105.
##  5 936               81.2             19.7               52             105.
##  6 ace              NaN               NA                Inf            -Inf 
##  7 ace              NaN               NA                Inf            -Inf 
##  8 ace              NaN               NA                Inf            -Inf 
##  9 ace              NaN               NA                Inf            -Inf 
## 10 ace              NaN               NA                Inf            -Inf 
## # … with 185 more rows, and 1 more variable: `quantile(\`High ºF\`, na.rm =
## #   T)` <dbl>

# Summary statistics for `Ratings` when grouped by Tags
Project1 %>% group_by(Tags) %>% summarize(mean(Rating, na.rm = T), 
    sd(Rating, na.rm = T), min(Rating, na.rm = T), max(Rating, 
        na.rm = T), quantile(Rating, na.rm = T))

## # A tibble: 195 x 6
## # Groups:   Tags [39]
##    Tags  `mean(Rating, n… `sd(Rating, na.… `min(Rating, na… `max(Rating, na…
##    <chr>            <dbl>            <dbl>            <dbl>            <dbl>
##  1 936               3.52             1.12              0.5              5  
##  2 936               3.52             1.12              0.5              5  
##  3 936               3.52             1.12              0.5              5  
##  4 936               3.52             1.12              0.5              5  
##  5 936               3.52             1.12              0.5              5  
##  6 ace               3.5             NA                 3.5              3.5
##  7 ace               3.5             NA                 3.5              3.5
##  8 ace               3.5             NA                 3.5              3.5
##  9 ace               3.5             NA                 3.5              3.5
## 10 ace               3.5             NA                 3.5              3.5
## # … with 185 more rows, and 1 more variable: `quantile(Rating, na.rm =
## #   T)` <dbl>
…
# Arranged movie names in alphabetical order, then desc low
# temp and then the mean of the low temp
Project1 %>% arrange(-desc(Name), desc(`low ºF`)) %>% summarize(mean(`low ºF`, 
    na.rm = T))

## # A tibble: 1 x 1
##   `mean(\`low ºF\`, na.rm = T)`
##                           <dbl>
## 1                          62.5

# Try grouping by two categorical veriables
Project1 %>% group_by(Rewatch, Tags) %>% summarise(mean(Rating, 
    na.rm = T))

## # A tibble: 59 x 3
## # Groups:   Rewatch [2]
##    Rewatch Tags                     `mean(Rating, na.rm = T)`
##    <fct>   <chr>                                        <dbl>
##  1 Yes     936                                           3.78
##  2 Yes     ace                                           3.5 
##  3 Yes     atx                                           3.12
##  4 Yes     bee hive                                      3.97
##  5 Yes     bre myself and i                              3.92
##  6 Yes     ho time                                       4.04
##  7 Yes     i'm on a true crime kick                      3.83
##  8 Yes     i'm the map                                   4   
##  9 Yes     im a bell                                     4   
## 10 Yes     im a cry baby                                 4.18
## # … with 49 more rows
…
